[
  {
    "name": "C15",
    "ip": "10.114.224.75",
    "scanners": 46,
    "enabled": true,
    "lines": [
      {
        "line":  1,
        "scanners": 15,
        "startByte": 20006,
        "enabled": true,
        "excludedScanners": []
      },
      {
        "line":  2,
        "scanners": 6,
        "startByte": 21448,
        "enabled": true,
        "excludedScanners": []
      },
      {
        "line":  3,
        "scanners": 15,
        "startByte": 22890,
        "enabled": true,
        "excludedScanners": []
      },
      {
        "line":  4,
        "scanners": 10,
        "startByte": 24332,
        "enabled": true,
        "excludedScanners": []
      }
    ]
  },
  {
    "name": "C16",
    "ip": "10.114.224.76",
    "scanners": 9,
    "enabled": true,
    "lines": [
      {
        "line":  1,
        "scanners": 9,
        "startByte": 20006,
        "enabled": true,
        "excludedScanners": []
      }
    ]
  },
  {
    "name": "C17",
    "ip": "10.114.224.77",
    "scanners": 28,
    "enabled": true,
    "lines": [
      {
        "line":  1,
        "scanners": 14,
        "startByte": 20006,
        "enabled": true,
        "excludedScanners": []
      },
      {
        "line":  2,
        "scanners": 14,
        "startByte": 21448,
        "enabled": true,
        "excludedScanners": []
      }
    ]
  },
  {
    "name": "C23",
    "ip": "10.114.224.83",
    "scanners": 12,
    "enabled": true,
    "lines": [
      {
        "line":  1,
        "scanners": 4,
        "startByte": 20006,
        "enabled": true,
        "excludedScanners": []
      },
      {
        "line":  2,
        "scanners": 8,
        "startByte": 21448,
        "enabled": true,
        "excludedScanners": []
      }
    ]
  }
]
